CalculationMode = td
ExperimentalFeatures = yes
FromScratch = yes
Dimensions = 3

%Systems
 "benzene" | electronic
%

XYZCoordinates = "12-tddft-currents-to-maxwell.00-benzene.xyz"
UnitsXYZFiles = angstrom_units

MaxwellCouplingMode = multipolar_expansion
MaxwellDipoleField = center_of_mass
MultipolarExpansionTerms = electric_dipole + electric_quadrupole + magnetic_dipole

BoxShape = parallelepiped
%Lsize
 3.0*angstrom | 3.0*angstrom | 2.0*angstrom
%
Spacing = 0.2*angstrom

TDSystemPropagator = prop_expmid

benzene.TDTimeStep = 0.02
TDPropagationTime = 0.4
%TDOutput
 maxwell_field
 multipoles
%
omega = 12.0 # Ha
ampl = 0.5
tau0 = 0.01 # sigma
t0 = 0.15
p_s = - t0*c
pw  = tau0*c
phase_vec = -pi/2

AnalyticalExternalSource = yes
%ExternalSource.MaxwellIncidentWaves
 plane_wave_mx_function | electric_field | ampl | 0 | 0 | "plane_waves_function"
%
%MaxwellFunctions
  "plane_waves_function" | mxf_gaussian_wave | 0 | 0 | omega/c | 0 | 0 | p_s | pw
%

PoissonSolver = fft
