             Info: Writing states. 2024/10/22 at 10:43:49


        Info: Finished writing states. 2024/10/22 at 10:43:49

Info: SCF converged in   18 iterations

Info: Number of matrix-vector products:        519
Info: Finished writing information to 'restart/gs'.

             Calculation ended on 2024/10/22 at 10:43:49

                          Walltime:  01.331s
