################################################################################
# HEADER
# nspin         1
# lmax          1
# kick mode     0
# kick strength    0.005291772086
# dim           3
# pol(1)           1.000000000000    0.000000000000    0.000000000000
# pol(2)           0.000000000000    1.000000000000    0.000000000000
# pol(3)           0.000000000000    0.000000000000    1.000000000000
# direction     1
# Equiv. axes   0
# wprime           0.000000000000    0.000000000000    1.000000000000
# kick time        0.000000000000
# Iter               t              Electronic charge(1)           <x>(1)                  <y>(1)                  <z>(1)         
#[Iter n.]       [hbar/eV]               Electrons                  [A]                     [A]                     [A]           
################################################################################
       0  0.0000000000000000e+00  8.0000000000000124e+00  9.6187539079254686e-16  7.6210127116640254e-15 -1.4798082935269951e-16
       1  2.2999999999999995e-03  7.9999999998976028e+00 -1.4416158006907410e-03  6.8811085649005276e-15 -1.0358658054688965e-15
       2  4.5999999999999991e-03  7.9999999997944800e+00 -2.8504303490658931e-03  3.5388228019422908e-15  3.0336070017303397e-15
       3  6.8999999999999981e-03  7.9999999996918412e+00 -4.2138719209564510e-03  1.0191023521437861e-14  2.1457220256141429e-15
