# ----- Calculation mode and parallelization ----------------------------------

CalculationMode   = td
RestartWrite = no
ExperimentalFeatures = yes
FromScratch = yes

Dimensions = 3

%Systems
  'Ions' | ions
%

# ----- Ions ------------------------------------------------------------------

%Ions.Coordinates
  'H' | 1 | 0.0001 | 0.0001
  'O' | 0 | 0.0001 | 0.0001
%

%Ions.Interactions
  coulomb_force | all_partners
%

Ions.TDSystemPropagator = exp_mid


# ----- Time step variables ---------------------------------------------------

TDTimeStep = 0.05
TDPropagationTime = 2
