# -*- coding: utf-8 -*-

UnitsOutput = ev_angstrom

CalculationMode = gs
FromScratch = yes

BoxShape = sphere
Radius = 3*angstrom
Spacing = 0.3*angstrom

%Coordinates
 "C"  |  0.000*angstrom |  0.000*angstrom |  0.000*angstrom
 "H"  | -1.213*angstrom | -0.852*angstrom |  0.000*angstrom
 "H"  |  0.000*angstrom |  0.852*angstrom | -1.213*angstrom
 "H"  |  0.000*angstrom |  0.852*angstrom |  1.213*angstrom
 "H"  |  1.213*angstrom | -0.852*angstrom |  0.000*angstrom
%

EigenSolver = cg
CGOrthogonalizeAll = true

SCFCalculatePartialCharges = yes

ExperimentalFeatures = yes
MixField = density

PoissonSolver = isf
