CalculationMode = gs

FromScratch = yes
TheoryLevel = independent_particles

AllElectronType = full_anc
AllElectronANCParam = 4

%Coordinates
 'H' | 0 | 0 | 0
%

Radius = 7.0
Spacing = 0.3

ExtraStates = 2

Eigensolver = chebyshev_filter
