************************** Kpoint selection **************************
Will use a zero-weight path in reciprocal space with the following points
       2    0.000000 |   -0.500000    0.000000 |
       3    0.000000 |   -0.450000    0.000000 |
       4    0.000000 |   -0.400000    0.000000 |
       5    0.000000 |   -0.350000    0.000000 |
       6    0.000000 |   -0.300000    0.000000 |
       7    0.000000 |   -0.250000    0.000000 |
       8    0.000000 |   -0.200000    0.000000 |
       9    0.000000 |   -0.150000    0.000000 |
      10    0.000000 |   -0.100000    0.000000 |
      11    0.000000 |   -0.050000    0.000000 |
      12    0.000000 |    0.000000    0.000000 |
      13    0.000000 |    0.050000    0.000000 |
      14    0.000000 |    0.100000    0.000000 |
      15    0.000000 |    0.150000    0.000000 |
      16    0.000000 |    0.200000    0.000000 |
      17    0.000000 |    0.250000    0.000000 |
      18    0.000000 |    0.300000    0.000000 |
      19    0.000000 |    0.350000    0.000000 |
      20    0.000000 |    0.400000    0.000000 |
      21    0.000000 |    0.450000    0.000000 |
      22    0.000000 |    0.500000    0.000000 |

**********************************************************************

Read PES restart files.
Zenith axis: (      0.00,       0.00,       1.00)
ETA: .......1......2.......3......4......5.......6......7.......8......9......0


***************** ARPES cut on reciprocal space path *****************
Done
**********************************************************************

