# -*- coding: utf-8 mode: shell-script -*-

CalculationMode = em_resp
FromScratch = yes
ExperimentalFeatures = yes
EMCalcBornCharges = yes

%Coordinates
 'O'  |  0.000000  | -0.553586  |  0.000000
 'H'  |  1.429937  |  0.553586  |  0.000000
 'H'  | -1.429937  |  0.553586  |  0.000000
%

Spacing = 0.65
Radius = 7.0

%EMFreqs
2 | 0.0 | 0.1
%

FilterPotentials = filter_none

PoissonSolver = isf
