CalculationMode = test
TestMode = derivatives
Debug = info

PeriodicDimensions = 3

a = 6
b = 6
c = 8

%LatticeParameters
  1 | 1 | 1
%

%LatticeVectors
 -0.5*a |  0.5*b |  0.5*c
  0.5*a | -0.5*b |  0.5*c
  0.5*a |  0.5*b | -0.5*c
%

%ReducedCoordinates
 "H" |   0.0    | 0.0     | 0.0
%

%Spacing
  a/20 | b/20 | c/20
%


TestRepetitions = 1

TestMaxBlockSize = 2
