CalculationMode = test
TestMode = derivatives
Debug = info

PeriodicDimensions = 3

a = 6
b = 6
c = 8
alpha = 90
beta = 90
gamma = 90

%LatticeParameters
  a | b | c
  alpha | beta | gamma
%

%ReducedCoordinates
 "H" |   0.0    | 0.0     | 0.0
%

%Spacing
  a/20 | b/20 | c/20
%


TestRepetitions = 1

TestMaxBlockSize = 2
