CalculationMode = test
TestMode = regridding
PeriodicDimensions = 3

%Systems
  "A" | electronic
  "B" | electronic
%

%Coordinates
"C" | 0.0 | 0.0 |  0.0
%

BoxShape = parallelepiped
A.ParStates = 1
A.ParKPoints = 1

a = 6.0*angstrom
b = 7.0*angstrom
c = 8.0*angstrom
resolution = 15
%A.Spacing
 a/resolution | b/resolution | c/resolution
%
%LatticeParameters
  a | b | c
  91 | 95 | 115
%

eta = 3
%B.Spacing
 a/resolution*eta | b/resolution*eta | c/resolution*eta
%
B.ParDomains = 2
