# -*- coding: utf-8 mode: shell-script -*-

Dimensions = 1
fromScratch = yes

CalculationMode = opt_control

ExperimentalFeatures = yes

# ------------------
# Grid
# ------------------
BoxShape = sphere
Spacing = 0.3
Radius =  10.0


# ------------------
# System
# ------------------
%Species
"ADW1D" | species_user_defined | potential_formula | "1/64*(x)^4-1/4*(x)^2+1/256*(x)^3" | valence | 1
%

%Coordinates
"ADW1D" | 0
%

TheoryLevel = independent_particles


# ------------------
# TD RUN Parameters
# ------------------

stime  = 50.0
dt = 0.01
TDPropagator = exp_mid
TDExponentialMethod = taylor
TDPropagationTime = stime
TDTimeStep = dt


# --------------
# OCT parameters
# --------------

OCTPenalty = 1.0
OCTEps = 0.000001
OCTMaxIter = 1

OCTInitialState = oct_is_groundstate
OCTTargetOperator = oct_tg_gstransformation
%OCTTargetTransformStates
0 | 1
%

OCTScheme  = oct_zbr98
OCTDoubleCheck = no


#----------------------------
# Laser field = Initial guess
#-----------------------------

ampl = 0.01
freq = 0.157

%TDExternalFields
  electric_field | 1 | 0 | 0 | freq | "envelope_function"
%

%TDFunctions
"envelope_function" | tdf_cw | ampl
%





# test code path without CUDA-aware MPI for this test
GPUAwareMPI = no
