CalculationMode = opt_control

ExperimentalFeatures = yes

Dimensions = 2
FromScratch = yes

BoxShape = sphere
Spacing = 0.50
Radius =  8.0

TheoryLevel = independent_particles

%Species
"sc"  | species_soft_coulomb | softening | 1.0 | mass | 10*0.0005485799110 | valence | 1
"sc2" | species_soft_coulomb | softening | 1.0 | mass | 10*0.0005485799110 | valence | 2
%

%Coordinates
"sc" |  1.0 |  0.0
"sc" |  0.0 | -1.0
"sc2" | -1.0 |  0.0
%
ExcessCharge = 3

MoveIons = yes

stime  = 1.0
dt = stime/100

AbsorbingBoundaries = cap
AbWidth = 2.0

TDPropagator = exp_mid
TDExponentialMethod = taylor
TDPropagationTime = stime
TDTimeStep = dt

ampl = 0.1
freq = (2*pi/stime)

%TDExternalFields
electric_field | 1.0/sqrt(2.0) | 1.0/sqrt(2.0) | 0.0 | freq | "envelope_function"
%

%TDFunctions
"envelope_function" | tdf_cw | ampl
%

# --------------
# OCT parameters
# --------------

OCTPenalty = 0.0
OCTEps   = 1.0e-4
OCTMaxIter = 2

OCTInitialState = oct_is_groundstate

OCTTargetOperator = oct_tg_classical
%OCTClassicalTarget
"q[2,2]+q[2,1]*p[1,1]*p[3,2]"
%
%OCTPositionDerivatives
"0.0" | "0.0"
"p[1,1]*p[3,2]" | "1.0"
"0.0" | "0.0"
%
%OCTMomentumDerivatives
"q[2,1]*p[3,2]" | "0.0"
"0.0" | "0.0"
"0.0" | "q[2,1]*p[1,1]"
%

#OCTCheckGradient = 0.001
OCTDirectStep = 0.1
OCTScheme = oct_bfgs
OCTControlFunctionRepresentation = control_fourier_series_h
OCTControlFunctionOmegaMax = 10.0

OCTFixFluenceTo = -1

OCTDoubleCheck = no
