# -*- coding: utf-8 mode: shell-script -*-

CalculationMode = td
FromScratch = yes

bondlength = 1.7/0.529177

%Coordinates
"Na" | 0.0 | 0.0 |  bondlength
"Na" | 0.0 | 0.0 | -bondlength
%

BoxShape = sphere
Radius  = 6.0/0.529177
Spacing = 0.3/0.529177

ExcessCharge = 1
TheoryLevel = independent_particles

TDPropagationTime = 0.5
TDTimeStep = 0.01
TDPropagator = exp_mid
TDExponentialMethod = lanczos


omega = 0.1
electric_amplitude = 1.0

%TDExternalFields
electric_field   | 1 | 0 | 0 | omega | "envelope_function"
electric_field   | 0 | 1 | 0 | 2*omega | "envelope_function"
%

%TDFunctions
"envelope_function" | tdf_cw | electric_amplitude
%

AbsorbingBoundaries = no

%TDOutput
 laser
 energy
 multipoles
 forces_sep
%

FilterPotentials = filter_none
