# hydrogen atom

CalculationMode = td

Dimensions = 3

# for 1 electron, not use any functional for e-e interaction
# one should turn this off when studying many electrons
XCFunctional = none

# for 1 electron, not include the Coulomb interaction
# one should comment this out when studying many electrons
XCPhotonIncludeHartree = no

Radius = 5.0
Spacing = 0.35

%Species
'H' | species_full_delta
%

%Coordinates
  "H" | 0 | 0 |  0
%

MaximumIter = 100
Eigensolver = rmmdiis

PoissonSolver = fft

%Output
 density | plane_z + axis_x + axis_y + axis_z
 potential | plane_z + axis_x + axis_y + axis_z
%

ExperimentalFeatures = yes

# to turn on the QEDFT px functional
XCPhotonFunctional = photon_x_lda


# PhotonXCEnergyMethod = 1: pxLDA (exchange virial relation)
# PhotonXCEnergyMethod = 2: px for one electron (do not use for many electrons)
PhotonXCEnergyMethod = virial

%PhotonModes
 0.374501 | 0.05 | 1 | 0 | 0
%

#### TD calculations ####
# Length of propagation -> e.g. 100fs = 4134.1105 a.u..
au2fs = 0.0241884
Tsimul  = 0.2/au2fs
dt = 0.08
#dt =0.20 ! fail for 180 fs
#dt = 0.25 ! fail  # Length of time step.
#dt = 0.30 ! fail

TDPropagator = aetrs
TDExponentialMethod = lanczos

TDPropagationTime = Tsimul
TDTimeStep = dt

TDDeltaStrength = 0.01/angstrom
TDPolarizationDirection = 1

UnitsOutput = eV_angstrom
