CalculationMode = gs

%Coordinates
 'N' | -2.312181 | -0.264140 | -0.340853
 'H' | -1.314189 |  1.379934 | -0.212905
 'H' | -4.090428 |  0.111958 | -0.982535
 'H' | -2.417661 | -1.088728 |  1.398183
 'O' |  3.141357 | -0.251053 | -0.217057
 'H' |  4.090428 |  1.312429 | -0.095380
 'H' |  3.972389 | -1.379934 | -1.398183
%

Spacing = 0.5
Radius = 7.

LCAOStart = lcao_states_batch

FromScratch = yes

VDWCorrection = vdw_ts

ExperimentalFeatures = yes

MixField = density

PoissonSolver = isf
