CalculationMode = gs
FromScratch = no

%Coordinates
"He" | 0 | 0 | 0
%
PseudopotentialSet = hgh_lda

spacing = 0.5
radius = 5.0

XCFunctional = mgga_c_nc_cs

SpinComponents = spinors

ConvRelDens = 4e-6

FilterPotentials = filter_none

ExperimentalFeatures = yes

TheoryLevel = kohn_sham

PoissonSolver = isf
