FromScratch = yes
CalculationMode = td

Dimensions = 1

Radius = 50
Spacing = 0.35

%Species
"Li" | species_soft_coulomb | softening | 1 | valence | 3
%

%Coordinates
"Li" | -10
%

SpinComponents = polarized

ExtraStates = 0

TDMaxSteps = 500
TDTimeStep = 0.06913

# Boundaries
# -----------------
AbsorbingBoundaries = mask
%ABShape
 20 | Radius
%

# LASER
# -----------------
amplitude = 70.763
omega = 1.5

%TDExternalFields
  vector_potential | 1 | 0 | 0 | omega | "ramp"
%

%TDFunctions
 "ramp" | tdf_trapezoidal | amplitude | 50 | 29.3 | 4.2
%

%TDOutput
 norm_ks_orbitals
%
