FromScratch=yes
CalculationMode = gs
PeriodicDimensions = 3
ExperimentalFeatures = yes
BoxShape = parallelepiped
%LatticeParameters
 1.0000000000E+00 | 1.0000000000E+00 | 1.0000000000E+00
%
%LatticeVectors
 -4.0000000000E+00 | 4.0000000000E+00 | 4.0000000000E+00
 4.0000000000E+00 | -4.0000000000E+00 | 4.0000000000E+00
 4.0000000000E+00 | 4.0000000000E+00 | -4.0000000000E+00
%
Spacing = 0.8
TheoryLevel = independent_particles
MaximumIter = 0
LCAOStart = lcao_none
FilterPotentials = filter_none
%KpointsGrid
 4 | 4 | 4
%
KPointsUseSymmetries = yes
%ReducedCoordinates
"H" | 2.6000000000E-01 | 2.8000000000E-01 | 3.2000000000E-01
"H" | 3.2000000000E-01 | 2.6000000000E-01 | 2.8000000000E-01
"H" | 4.6000000000E-01 | 9.4000000000E-01 | 1.8000000000E-01
"H" | 4.0000000000E-02 | 2.2000000000E-01 | 4.8000000000E-01
"H" | 2.4000000000E-01 | 5.6000000000E-01 | 2.0000000000E-02
"H" | 1.8000000000E-01 | 4.6000000000E-01 | 9.4000000000E-01
"H" | 4.8000000000E-01 | 4.0000000000E-02 | 2.2000000000E-01
"H" | 2.0000000000E-02 | 2.4000000000E-01 | 5.6000000000E-01
"H" | 2.8000000000E-01 | 3.2000000000E-01 | 2.6000000000E-01
"H" | 9.4000000000E-01 | 1.8000000000E-01 | 4.6000000000E-01
"H" | 2.2000000000E-01 | 4.8000000000E-01 | 4.0000000000E-02
"H" | 5.6000000000E-01 | 2.0000000000E-02 | 2.4000000000E-01
"H" | 7.4000000000E-01 | 7.2000000000E-01 | 6.8000000000E-01
"H" | 6.8000000000E-01 | 7.4000000000E-01 | 7.2000000000E-01
"H" | 5.4000000000E-01 | 6.0000000000E-02 | 8.2000000000E-01
"H" | 9.6000000000E-01 | 7.8000000000E-01 | 5.2000000000E-01
"H" | 7.6000000000E-01 | 4.4000000000E-01 | 9.8000000000E-01
"H" | 8.2000000000E-01 | 5.4000000000E-01 | 6.0000000000E-02
"H" | 5.2000000000E-01 | 9.6000000000E-01 | 7.8000000000E-01
"H" | 9.8000000000E-01 | 7.6000000000E-01 | 4.4000000000E-01
"H" | 7.2000000000E-01 | 6.8000000000E-01 | 7.4000000000E-01
"H" | 6.0000000000E-02 | 8.2000000000E-01 | 5.4000000000E-01
"H" | 7.8000000000E-01 | 5.2000000000E-01 | 9.6000000000E-01
"H" | 4.4000000000E-01 | 9.8000000000E-01 | 7.6000000000E-01
%
