{
    "version": 4,
    "include": [
        "CMakePresets-defaults.json",
        "CMakePresets-components.json"
    ],
    "configurePresets": [
        {
            "name": "_ci_base",
            "hidden": true,
            "inherits": [
                "default",
                "_native"
            ],
            "errors": {
                "deprecated": true
            },
            "cacheVariables": {
                "FETCHCONTENT_TRY_FIND_PACKAGE_MODE": "ALWAYS",
                "CMAKE_BUILD_TYPE": "CI",
                "OCTOPUS_UNIT_TESTS": true,
                "OCTOPUS_APP_TESTS": true,
                "OCTOPUS_TESTS_REPORT": true
            }
        },
        {
            "name": "_ci_foss",
            "hidden": true,
            "inherits": [
                "_ci_base"
            ],
            "cacheVariables": {
                "CMAKE_C_COMPILER": {
                    "type": "FILEPATH",
                    "value": "gcc"
                },
                "CMAKE_CXX_COMPILER": {
                    "type": "FILEPATH",
                    "value": "g++"
                },
                "CMAKE_Fortran_COMPILER": {
                    "type": "FILEPATH",
                    "value": "gfortran"
                },
                "OCTOPUS_FFTW": true,
                "OCTOPUS_MKL": false
            }
        },
        {
            "name": "ci-foss-min",
            "displayName": "CI - Foss toolchain + min + serial",
            "inherits": [
                "_ci_foss",
                "_serial",
                "_min"
            ],
            "binaryDir": "cmake-build-ci-foss-min",
            "cacheVariables": {
                "CMAKE_BUILD_TYPE": "RelWithDebInfo"
            }
        },
        {
            "name": "ci-foss-full",
            "displayName": "CI - Foss toolchain + full + serial",
            "inherits": [
                "_ci_foss",
                "_serial",
                "_full-required"
            ],
            "binaryDir": "cmake-build-ci-foss-full"
        },
        {
            "name": "ci-foss-min-mpi",
            "displayName": "CI - Foss toolchain + min + MPI",
            "inherits": [
                "_ci_foss",
                "_mpi",
                "_min"
            ],
            "binaryDir": "cmake-build-ci-foss-min-mpi",
            "cacheVariables": {
                "CMAKE_BUILD_TYPE": "RelWithDebInfo"
            }
        },
        {
            "name": "ci-foss-full-mpi",
            "displayName": "CI - Foss toolchain + full + MPI",
            "inherits": [
                "_ci_foss",
                "_mpi",
                "_full-mpi-required"
            ],
            "binaryDir": "cmake-build-ci-foss-full-mpi"
        },
        {
            "name": "_ci-intel",
            "hidden": true,
            "inherits": [
                "_ci_base"
            ],
            "cacheVariables": {
                "Flag INIT Notes": "C and C++ flags suppress compiler deprecation warnings. Fortran flags disable long routine name and dummy args to MPI_I<> warnings.",
                "CMAKE_C_FLAGS_INIT": "-diag-disable=10441",
                "CMAKE_CXX_FLAGS_INIT": "-diag-disable=10441",
                "CMAKE_Fortran_FLAGS_INIT": "-diag-disable:5462,8100",
                "FETCHCONTENT_SOURCE_DIR_SPGLIB": {
                    "type": "FILEPATH",
                    "value": "${sourceDir}/third_party/Spglib"
                },
                "CMAKE_C_COMPILER": {
                    "type": "FILEPATH",
                    "value": "icc"
                },
                "CMAKE_CXX_COMPILER": {
                    "type": "FILEPATH",
                    "value": "icpc"
                },
                "CMAKE_Fortran_COMPILER": {
                    "type": "FILEPATH",
                    "value": "ifort"
                },
                "OCTOPUS_FFTW": false,
                "OCTOPUS_MKL": true,
                "MKL_ROOT": {
                    "type": "FILEPATH",
                    "value": "$env{MKLROOT}"
                },
                "CMAKE_DISABLE_FIND_PACKAGE_libvdwxc": true,
                "CMAKE_REQUIRE_FIND_PACKAGE_libvdwxc": false,
                "CMAKE_DISABLE_FIND_PACKAGE_nfft": true,
                "CMAKE_REQUIRE_FIND_PACKAGE_nfft": false
            }
        },
        {
            "name": "ci-intel-min",
            "displayName": "CI - Intel toolchain + min",
            "inherits": [
                "_ci-intel",
                "_min"
            ],
            "binaryDir": "cmake-build-ci-intel-min",
            "cacheVariables": {
                "CMAKE_BUILD_TYPE": "RelWithDebInfo"
            }
        },
        {
            "name": "ci-intel-full",
            "displayName": "CI - Intel toolchain + full + serial",
            "inherits": [
                "_ci-intel",
                "_serial",
                "_full-required"
            ],
            "binaryDir": "cmake-build-ci-intel-full"
        },
        {
            "name": "ci-intel-min-mpi",
            "displayName": "CI - Intel toolchain + min + MPI",
            "inherits": [
                "_ci-intel",
                "_mpi",
                "_min"
            ],
            "binaryDir": "cmake-build-ci-intel-min-mpi",
            "cacheVariables": {
                "CMAKE_BUILD_TYPE": "RelWithDebInfo"
            }
        },
        {
            "name": "ci-intel-full-mpi",
            "displayName": "CI - Intel toolchain + full + MPI",
            "inherits": [
                "_ci-intel",
                "_full-mpi-required"
            ],
            "binaryDir": "cmake-build-ci-intel-full-mpi",
            "cacheVariables": {
                "CMAKE_DISABLE_FIND_PACKAGE_pfft": true,
                "CMAKE_REQUIRE_FIND_PACKAGE_pfft": false,
                "CMAKE_DISABLE_FIND_PACKAGE_pnfft": true,
                "CMAKE_REQUIRE_FIND_PACKAGE_pnfft": false
            }
        }
    ]
}
