++++++++++++++++++++++++++++++++++++++++++++++++++++++++++++++++++++++
+++++++++++++++++++++ MINIMIZATION ITER #:   31 ++++++++++++++++++++++
  Energy    = -218.8768110116 eV
  Max force =    0.0349131063 eV/A
  Max dr    =    0.0010886077 A
++++++++++++++++++++++++++++++++++++++++++++++++++++++++++++++++++++++
++++++++++++++++++++++++++++++++++++++++++++++++++++++++++++++++++++++



Writing final coordinates to min.xyz
Info: Finished writing information to 'restart/gs'.

