CalculationMode = gs
ExperimentalFeatures = yes
FromScratch = yes

PeriodicDimensions = 3

a =  9.

PseudopotentialSet = hgh_lda

Spacing = 0.35

%LatticeParameters
  a | a  | a
 57.25 | 57.25 | 57.25
%

%ReducedCoordinates
 "Bi" | 0.231 | 0.231 | 0.231
 "Bi" |-0.231 |-0.231 |-0.231
%

%KPointsGrid
 1 | 1 | 1
0.1 | 0.2 | 0.3
%

ExtraStates = 5 

ConvRelDens = 1e-8
Eigensolver = chebyshev_filter

SpinComponents = spinors
RelativisticCorrection = spin_orbit
GuessMagnetDensity = paramagnetic

%Output
 current | axis_z
%
