CalculationMode = go
PeriodicDimensions = 2
BoxShape = parallelepiped
FromScratch = yes

a = 2.54 * angstrom
LL = 10

%LatticeParameters
  a | a | LL
%

%LatticeVectors
 1/2 |-sqrt(3)/2 | 0.
 1/2 | sqrt(3)/2 | 0.
0.   | 0.        | 1.
%

PseudopotentialSet = hgh_lda
%ReducedCoordinates
'B' |  0.  |    0. |   0.
'N' |  1/3 |   2/3 |   0.
%

Spacing = 0.5

%KPointsGrid
 2 | 2 | 1
%
SymmetrizeDensity = yes

ExtraStates = 4
ConvRelDens = 1e-9
Eigensolver = chebyshev_filter

FilterPotentials = filter_none

ExperimentalFeatures = yes
GOType = ion_positions + cell_shape
SCFCalculateStress = yes
UnitsOutput = ev_angstrom
GOMaxIter = 5

